{
    "$schema": "http://json-schema.org/schema#",
    "type": "object",
    "properties": {
        "bootstrapCompany": {
            "type": "object",
            "properties": {
                "email": {
                    "type": "string"
                },
                "locale": {
                    "type": "string"
                },
                "password": {
                    "type": "string"
                }
            }
        },
        "db": {
            "type": "object",
            "properties": {
                "amqpUrl": {
                    "type": "string"
                },
                "mongoUrl": {
                    "type": "string"
                },
                "psqlUrl": {
                    "type": "string"
                },
                "redisUrl": {
                    "type": "string"
                },
                "roPsqlUrl": {
                    "type": "string"
                },
                "s3": {
                    "type": "object",
                    "properties": {
                        "accesskeyid": {
                            "type": "string"
                        },
                        "backend": {
                            "type": "object",
                            "properties": {
                                "address": {
                                    "type": "string"
                                },
                                "region": {
                                    "type": "string"
                                }
                            }
                        },
                        "bucket": {
                            "type": "string"
                        },
                        "dumpurl": {
                            "type": "string"
                        },
                        "method": {
                            "type": "string"
                        },
                        "secretaccesskey": {
                            "type": "string"
                        },
                        "ssl": {
                            "type": "object",
                            "properties": {
                                "enabled": {
                                    "type": "string"
                                }
                            }
                        }
                    }
                },
                "vahterMongoUrl": {
                    "type": "string"
                }
            }
        },
        "debug": {
            "type": "boolean"
        },
        "global": {
            "type": "object",
            "properties": {
                "activeDeadlineSeconds": {
                    "type": "integer"
                },
                "autoscaling": {
                    "type": "object",
                    "properties": {
                        "enabled": {
                            "type": "boolean"
                        },
                        "maxReplicas": {
                            "type": "integer"
                        },
                        "minReplicas": {
                            "type": "integer"
                        }
                    }
                },
                "curlCreateCompanyMaxTime": {
                    "type": "integer"
                },
                "curlMigrationsMaxTime": {
                    "type": "integer"
                },
                "host": {
                    "type": "string"
                },
                "ingress": {
                    "type": "object",
                    "properties": {
                        "annotations": {
                            "type": "object",
                            "properties": {
                                "kubernetes.io/ingress.class": {
                                    "type": "string"
                                }
                            }
                        },
                        "hostEnabled": {
                            "type": "boolean"
                        },
                        "onpremiseTls": {
                            "type": "object",
                            "properties": {
                                "configCA": {
                                    "type": "string"
                                },
                                "enabled": {
                                    "type": "boolean"
                                },
                                "enabledCA": {
                                    "type": "boolean"
                                },
                                "secret": {
                                    "type": "string"
                                }
                            }
                        }
                    }
                },
                "kubeVersion": {
                    "type": "string"
                },
                "machineId": {
                    "type": "string"
                },
                "maxGrpcBackoffDelay": {
                    "type": "string"
                },
                "maxGrpcMessageSize": {
                    "type": "string"
                },
                "monitoring": {
                    "type": "object",
                    "properties": {
                        "alerts": {
                            "type": "object",
                            "properties": {
                                "enabled": {
                                    "type": "boolean"
                                }
                            }
                        },
                        "dashboard": {
                            "type": "object",
                            "properties": {
                                "enabled": {
                                    "type": "boolean"
                                }
                            }
                        },
                        "enabled": {
                            "type": "boolean"
                        },
                        "metrics": {
                            "type": "object",
                            "properties": {
                                "all": {
                                    "type": "boolean"
                                },
                                "enabled": {
                                    "type": "boolean"
                                }
                            }
                        },
                        "provisioner": {
                            "type": "string"
                        }
                    }
                },
                "openshift": {
                    "type": "boolean"
                },
                "postgres": {
                    "type": "object",
                    "properties": {
                        "maxConnLife": {
                            "type": "string"
                        },
                        "maxIdleConns": {
                            "type": "integer"
                        },
                        "maxOpenConns": {
                            "type": "integer"
                        },
                        "poolConnMaxLifetime": {
                            "type": "string"
                        },
                        "poolMaxIdleConns": {
                            "type": "integer"
                        },
                        "poolMaxOpenConns": {
                            "type": "integer"
                        }
                    }
                }
            }
        },
        "language": {
            "type": "object",
            "properties": {
                "default": {
                    "type": "string"
                }
            }
        },
        "mailer": {
            "type": "object",
            "properties": {
                "smtp": {
                    "type": "object",
                    "properties": {
                        "from": {
                            "type": "string"
                        },
                        "host": {
                            "type": "string"
                        },
                        "needTLS": {
                            "type": "boolean"
                        },
                        "password": {
                            "type": "string"
                        },
                        "port": {
                            "type": "string"
                        },
                        "user": {
                            "type": "string"
                        }
                    }
                }
            }
        },
        "settings": {
            "type": "object",
            "properties": {
                "appconfig": {
                    "type": "object",
                    "properties": {
                        "onPremiseEnabledFeatureFlags": {
                            "type": "array",
                            "items": {
                                "type": "string"
                            }
                        }
                    }
                }
            }
        }
    }
}
